# find /sys -name driver* -exec readlink '{}' \;
../../../bus/pci/drivers/snd_hda_intel
../../../../bus/hdaudio/drivers/snd_hda_codec_realtek
../../../bus/pci/drivers/skl_uncore
../../../bus/pci/drivers/pcieport
../../../bus/pci/drivers/pcieport
../../../bus/pci/drivers/e1000e
../../../bus/pci/drivers/pcieport
../../../../../bus/pci/drivers/pcieport
../../../../../bus/pci/drivers/pcieport
../../../../bus/pci/drivers/pcieport
../../../../../bus/pci/drivers/pcieport
../../../../../bus/pci/drivers/pcieport
../../../../../../bus/pci/drivers/xhci_hcd
../../../../../../../../bus/usb/drivers/hub
../../../../../../../bus/usb/drivers/usb
../../../../../../../../bus/usb/drivers/usb
../../../../../../../../../bus/usb/drivers/ax88179_178a
../../../../../../../bus/usb/drivers/usb
../../../../../../../../bus/usb/drivers/hub
../../../../../bus/usb/drivers/usb
../../../../../../bus/usb/drivers/btusb
../../../../../../bus/usb/drivers/btusb
../../../../../../bus/usb/drivers/btusb
../../../../../bus/usb/drivers/usb
../../../../../../bus/usb/drivers/usbhid
../../../../../../../bus/hid/drivers/hid-generic
../../../../bus/usb/drivers/usb
../../../../../bus/usb/drivers/usb
../../../../../../../bus/hid/drivers/hid-generic
../../../../../../bus/usb/drivers/usbhid
../../../../../../bus/usb/drivers/usbhid
../../../../../../../bus/hid/drivers/hid-generic
../../../../../bus/usb/drivers/hub
../../../../../../bus/usb/drivers/usbhid
../../../../../../../bus/hid/drivers/hid-generic
../../../../../bus/usb/drivers/usb
../../../../../../../bus/hid/drivers/hid-generic
../../../../../../bus/usb/drivers/usbhid
../../../bus/pci/drivers/xhci_hcd
../../../../bus/usb/drivers/usb
../../../../../bus/usb/drivers/hub
../../../bus/pci/drivers/i801_smbus
../../../../bus/platform/drivers/iTCO_wdt
../../../../../../bus/pci/drivers/ahci
../../../../../bus/pci/drivers/pcieport
../../../../../bus/pci/drivers/pcieport
../../../../bus/pci/drivers/pcieport
../../../../../bus/pci/drivers/pcieport
../../../../../../bus/pci/drivers/bcma-pci-bridge
../../../../../bus/pci/drivers/pcieport
../../../../../../../bus/usb/drivers/usb
../../../../../../../../bus/usb/drivers/hub
../../../../../../bus/pci/drivers/xhci_hcd
../../../../../../../bus/usb/drivers/usb
../../../../../../../../bus/usb/drivers/hub
../../../../../bus/pci/drivers/pcieport
../../../../../bus/pci/drivers/pcieport
../../../../../bus/pci/drivers/pcieport
../../../bus/pci/drivers/pcieport
../../../../../../../bus/scsi/drivers/sd
../../../bus/pci/drivers/ahci
../../../../../../../bus/scsi/drivers/sr
../../../../../../../bus/scsi/drivers/sd
../../../bus/pci/drivers/pcieport
../../../../../../bus/usb/drivers/hub
../../../../../bus/usb/drivers/usb
../../../../bus/pci/drivers/xhci_hcd
../../../../../../../../../../bus/scsi/drivers/sd
../../../../../../../bus/usb/drivers/usb-storage
../../../../../../bus/usb/drivers/usb
../../../../../bus/usb/drivers/usb
../../../../../../bus/usb/drivers/hub
../../../../bus/pci/drivers/snd_hda_intel
../../../../../bus/hdaudio/drivers/snd_hda_codec_hdmi
../../../bus/pci/drivers/pcieport
../../../../bus/pci/drivers/nvidia
../../../bus/pci/drivers/pcieport
../../../bus/pci/drivers/mei_me
../../../bus/pci/drivers/pcieport
../../../bus/platform/drivers/reg-dummy
../../../bus/platform/drivers/acpi-fan
../../../bus/platform/drivers/acpi-fan
../../../bus/platform/drivers/alarmtimer
../../../bus/platform/drivers/coretemp
../../../bus/platform/drivers/acpi-fan
../../../bus/platform/drivers/acpi-fan
../../../bus/platform/drivers/efi-framebuffer
../../../bus/platform/drivers/pcspkr
../../../bus/platform/drivers/serial8250
../../../bus/platform/drivers/eeepc-wmi
../../../bus/platform/drivers/dcdbas
../../../bus/platform/drivers/i8042
../../../bus/platform/drivers/acpi-fan
../../../bus/pnp/drivers/system
../../../bus/pnp/drivers/system
../../../bus/pnp/drivers/system
../../../bus/pnp/drivers/rtc_cmos
../../../bus/pnp/drivers/system
../../../bus/pnp/drivers/system
../../../bus/pnp/drivers/system
../../../bus/pnp/drivers/system
../../../../bus/cpu/drivers/processor
../../../../bus/cpu/drivers/processor
../../../../bus/cpu/drivers/processor
../../../../bus/cpu/drivers/processor
../../../../bus/cpu/drivers/processor
../../../../bus/cpu/drivers/processor
../../../../bus/cpu/drivers/processor
../../../../bus/cpu/drivers/processor
../../../../bus/acpi/drivers/thermal
../../../../bus/acpi/drivers/thermal
../../../bus/acpi/drivers/button
../../../bus/acpi/drivers/wmi
../../../../../bus/acpi/drivers/wmi
../../../../../../bus/acpi/drivers/ec
../../../../../bus/acpi/drivers/NVIDIA ACPI Video Driver
../../../../bus/acpi/drivers/button
../../../../bus/acpi/drivers/button
../../../../bus/acpi/drivers/wmi
../../../../bus/acpi/drivers/processor_aggregator
